   1        0.2500000      0.5000000      0.7500000     2.00000      -1776.52702     2.00000      -1776.52702     2.00000       -133.21988     2.00000       -133.21988     2.00000        -90.05253     2.00000        -90.05253     2.00000        -90.04058     2.00000        -90.04058     2.00000        -90.02860     2.00000        -90.02860     2.00000         -8.14862     2.00000         -8.14862     2.00000         -4.39319     2.00000         -4.39319     0.00000          3.85439     0.00000          3.85439     0.00000          4.59752     0.00000          4.59752     0.00000         10.25039     0.00000         10.25039     0.00000         12.93505     0.00000         12.93505     0.00000         17.26743     0.00000         17.26743     0.00000         18.89532
   2        0.2525510      0.4974490      0.7500000     2.00000      -1776.52702     2.00000      -1776.52702     2.00000       -133.21991     2.00000       -133.21986     2.00000        -90.05253     2.00000        -90.05252     2.00000        -90.04064     2.00000        -90.04051     2.00000        -90.02861     2.00000        -90.02860     2.00000         -8.17206     2.00000         -8.12535     2.00000         -4.41118     2.00000         -4.37435     0.00000          3.82641     0.00000          3.87074     0.00000          4.58792     0.00000          4.61969     0.00000         10.20599     0.00000         10.29315     0.00000         12.88902     0.00000         12.98239     0.00000         17.22376     0.00000         17.31006     0.00000         18.85427
   3        0.2551020      0.4948980      0.7500000     2.00000      -1776.52702     2.00000      -1776.52702     2.00000       -133.21993     2.00000       -133.21983     2.00000        -90.05254     2.00000        -90.05251     2.00000        -90.04071     2.00000        -90.04044     2.00000        -90.02862     2.00000        -90.02859     2.00000         -8.19502     2.00000         -8.10290     2.00000         -4.42886     2.00000         -4.35412     0.00000          3.77998     0.00000          3.88381     0.00000          4.59792     0.00000          4.64587     0.00000         10.16054     0.00000         10.33351     0.00000         12.84476     0.00000         13.03072     0.00000         17.17939     0.00000         17.35132     0.00000         18.80628
   4        0.2576531      0.4923469      0.7500000     2.00000      -1776.52702     2.00000      -1776.52702     2.00000       -133.21996     2.00000       -133.21981     2.00000        -90.05255     2.00000        -90.05250     2.00000        -90.04078     2.00000        -90.04038     2.00000        -90.02863     2.00000        -90.02858     2.00000         -8.21751     2.00000         -8.08127     2.00000         -4.44621     2.00000         -4.33253     0.00000          3.71873     0.00000          3.89377     0.00000          4.62390     0.00000          4.67588     0.00000         10.11410     0.00000         10.37114     0.00000         12.80264     0.00000         13.07997     0.00000         17.13455     0.00000         17.39105     0.00000         18.75195
   5        0.2602041      0.4897959      0.7500000     2.00000      -1776.52702     2.00000      -1776.52702     2.00000       -133.21998     2.00000       -133.21978     2.00000        -90.05256     2.00000        -90.05249     2.00000        -90.04084     2.00000        -90.04031     2.00000        -90.02864     2.00000        -90.02857     2.00000         -8.23953     2.00000         -8.06045     2.00000         -4.46325     2.00000         -4.30959     0.00000          3.64669     0.00000          3.90087     0.00000          4.66186     0.00000          4.70947     0.00000         10.06674     0.00000         10.40566     0.00000         12.76305     0.00000         13.13008     0.00000         17.08945     0.00000         17.42907     0.00000         18.69205
   6        0.2627551      0.4872449      0.7500000     2.00000      -1776.52702     2.00000      -1776.52702     2.00000       -133.22000     2.00000       -133.21976     2.00000        -90.05256     2.00000        -90.05248     2.00000        -90.04091     2.00000        -90.04025     2.00000        -90.02865     2.00000        -90.02857     2.00000         -8.26107     2.00000         -8.04046     2.00000         -4.47995     2.00000         -4.28532     0.00000          3.56724     0.00000          3.90538     0.00000          4.70844     0.00000          4.74634     0.00000         10.01851     0.00000         10.43668     0.00000         12.72642     0.00000         13.18098     0.00000         17.04424     0.00000         17.46520     0.00000         18.62741
   7        0.2653061      0.4846939      0.7500000     2.00000      -1776.52702     2.00000      -1776.52702     2.00000       -133.22002     2.00000       -133.21974     2.00000        -90.05257     2.00000        -90.05247     2.00000        -90.04097     2.00000        -90.04018     2.00000        -90.02866     2.00000        -90.02856     2.00000         -8.28213     2.00000         -8.02127     2.00000         -4.49633     2.00000         -4.25974     0.00000          3.48282     0.00000          3.90764     0.00000          4.76121     0.00000          4.78618     0.00000          9.96946     0.00000         10.46378     0.00000         12.69319     0.00000         13.23260     0.00000         16.99909     0.00000         17.49925     0.00000         18.55880
   8        0.2678571      0.4821429      0.7500000     2.00000      -1776.52702     2.00000      -1776.52702     2.00000       -133.22005     2.00000       -133.21972     2.00000        -90.05258     2.00000        -90.05246     2.00000        -90.04104     2.00000        -90.04012     2.00000        -90.02867     2.00000        -90.02855     2.00000         -8.30272     2.00000         -8.00288     2.00000         -4.51237     2.00000         -4.23288     0.00000          3.39512     0.00000          3.90795     0.00000          4.81849     0.00000          4.82866     0.00000          9.91964     0.00000         10.48653     0.00000         12.66383     0.00000         13.28490     0.00000         16.95413     0.00000         17.53100     0.00000         18.48694
   9        0.2704082      0.4795918      0.7500000     2.00000      -1776.52702     2.00000      -1776.52702     2.00000       -133.22007     2.00000       -133.21969     2.00000        -90.05258     2.00000        -90.05245     2.00000        -90.04110     2.00000        -90.04006     2.00000        -90.02868     2.00000        -90.02855     2.00000         -8.32283     2.00000         -7.98530     2.00000         -4.52808     2.00000         -4.20477     0.00000          3.30532     0.00000          3.90661     0.00000          4.87347     0.00000          4.87915     0.00000          9.86909     0.00000         10.50451     0.00000         12.63879     0.00000         13.33782     0.00000         16.90946     0.00000         17.56027     0.00000         18.41240
  10        0.2729592      0.4770408      0.7500000     2.00000      -1776.52702     2.00000      -1776.52702     2.00000       -133.22009     2.00000       -133.21967     2.00000        -90.05259     2.00000        -90.05244     2.00000        -90.04116     2.00000        -90.03999     2.00000        -90.02869     2.00000        -90.02854     2.00000         -8.34246     2.00000         -7.96849     2.00000         -4.54344     2.00000         -4.17544     0.00000          3.21421     0.00000          3.90388     0.00000          4.92036     0.00000          4.94241     0.00000          9.81784     0.00000         10.51732     0.00000         12.61850     0.00000         13.39132     0.00000         16.86519     0.00000         17.58684     0.00000         18.33570
  11        0.2755102      0.4744898      0.7500000     2.00000      -1776.52702     2.00000      -1776.52702     2.00000       -133.22011     2.00000       -133.21965     2.00000        -90.05260     2.00000        -90.05243     2.00000        -90.04122     2.00000        -90.03993     2.00000        -90.02870     2.00000        -90.02853     2.00000         -8.36162     2.00000         -7.95246     2.00000         -4.55846     2.00000         -4.14493     0.00000          3.12235     0.00000          3.90001     0.00000          4.96905     0.00000          5.00773     0.00000          9.76593     0.00000         10.52460     0.00000         12.60335     0.00000         13.44535     0.00000         16.82139     0.00000         17.61052     0.00000         18.25725
  12        0.2780612      0.4719388      0.7500000     2.00000      -1776.52702     2.00000      -1776.52702     2.00000       -133.22013     2.00000       -133.21963     2.00000        -90.05260     2.00000        -90.05242     2.00000        -90.04128     2.00000        -90.03987     2.00000        -90.02871     2.00000        -90.02853     2.00000         -8.38030     2.00000         -7.93719     2.00000         -4.57314     2.00000         -4.11329     0.00000          3.03017     0.00000          3.89521     0.00000          5.01935     0.00000          5.07471     0.00000          9.71339     0.00000         10.52606     0.00000         12.59365     0.00000         13.49986     0.00000         16.77813     0.00000         17.63111     0.00000         18.17739
  13        0.2806122      0.4693878      0.7500000     2.00000      -1776.52702     2.00000      -1776.52702     2.00000       -133.22015     2.00000       -133.21961     2.00000        -90.05261     2.00000        -90.05241     2.00000        -90.04134     2.00000        -90.03981     2.00000        -90.02872     2.00000        -90.02852     2.00000         -8.39849     2.00000         -7.92265     2.00000         -4.58746     2.00000         -4.08055     0.00000          2.93796     0.00000          3.88965     0.00000          5.07105     0.00000          5.14309     0.00000          9.66025     0.00000         10.52150     0.00000         12.58965     0.00000         13.55483     0.00000         16.73545     0.00000         17.64841     0.00000         18.09640
  14        0.2831633      0.4668367      0.7500000     2.00000      -1776.52702     2.00000      -1776.52702     2.00000       -133.22017     2.00000       -133.21959     2.00000        -90.05262     2.00000        -90.05240     2.00000        -90.04140     2.00000        -90.03976     2.00000        -90.02873     2.00000        -90.02852     2.00000         -8.41621     2.00000         -7.90885     2.00000         -4.60144     2.00000         -4.04677     0.00000          2.84596     0.00000          3.88348     0.00000          5.12401     0.00000          5.21266     0.00000          9.60654     0.00000         10.51083     0.00000         12.59148     0.00000         13.61020     0.00000         16.69341     0.00000         17.66223     0.00000         18.01453
  15        0.2857143      0.4642857      0.7500000     2.00000      -1776.52702     2.00000      -1776.52702     2.00000       -133.22019     2.00000       -133.21957     2.00000        -90.05262     2.00000        -90.05239     2.00000        -90.04145     2.00000        -90.03970     2.00000        -90.02874     2.00000        -90.02851     2.00000         -8.43345     2.00000         -7.89575     2.00000         -4.61505     2.00000         -4.01200     0.00000          2.75437     0.00000          3.87684     0.00000          5.17807     0.00000          5.28325     0.00000          9.55228     0.00000         10.49404     0.00000         12.59916     0.00000         13.66594     0.00000         16.65202     0.00000         17.67239     0.00000         17.93198
  16        0.2882653      0.4617347      0.7500000     2.00000      -1776.52702     2.00000      -1776.52702     2.00000       -133.22021     2.00000       -133.21955     2.00000        -90.05263     2.00000        -90.05238     2.00000        -90.04151     2.00000        -90.03964     2.00000        -90.02875     2.00000        -90.02850     2.00000         -8.45020     2.00000         -7.88334     2.00000         -4.62831     2.00000         -3.97629     0.00000          2.66333     0.00000          3.86984     0.00000          5.23313     0.00000          5.35475     0.00000          9.49749     0.00000         10.47126     0.00000         12.61260     0.00000         13.72202     0.00000         16.61129     0.00000         17.67869     0.00000         17.84894
  17        0.2908163      0.4591837      0.7500000     2.00000      -1776.52702     2.00000      -1776.52702     2.00000       -133.22023     2.00000       -133.21953     2.00000        -90.05263     2.00000        -90.05237     2.00000        -90.04157     2.00000        -90.03959     2.00000        -90.02876     2.00000        -90.02850     2.00000         -8.46648     2.00000         -7.87159     2.00000         -4.64121     2.00000         -3.93970     0.00000          2.57297     0.00000          3.86257     0.00000          5.28906     0.00000          5.42707     0.00000          9.44220     0.00000         10.44269     0.00000         12.63165     0.00000         13.77840     0.00000         16.57124     0.00000         17.68092     0.00000         17.76557
  18        0.2933673      0.4566327      0.7500000     2.00000      -1776.52702     2.00000      -1776.52702     2.00000       -133.22025     2.00000       -133.21952     2.00000        -90.05264     2.00000        -90.05236     2.00000        -90.04162     2.00000        -90.03954     2.00000        -90.02877     2.00000        -90.02849     2.00000         -8.48227     2.00000         -7.86049     2.00000         -4.65375     2.00000         -3.90229     0.00000          2.48342     0.00000          3.85512     0.00000          5.34579     0.00000          5.50012     0.00000          9.38643     0.00000         10.40862     0.00000         12.65604     0.00000         13.83504     0.00000         16.53183     0.00000         17.67887     0.00000         17.68203
  19        0.2959184      0.4540816      0.7500000     2.00000      -1776.52702     2.00000      -1776.52702     2.00000       -133.22026     2.00000       -133.21950     2.00000        -90.05264     2.00000        -90.05235     2.00000        -90.04167     2.00000        -90.03948     2.00000        -90.02878     2.00000        -90.02849     2.00000         -8.49758     2.00000         -7.85002     2.00000         -4.66592     2.00000         -3.86414     0.00000          2.39477     0.00000          3.84755     0.00000          5.40324     0.00000          5.57385     0.00000          9.33020     0.00000         10.36938     0.00000         12.68546     0.00000         13.89191     0.00000         16.49306     0.00000         17.59846     0.00000         17.67231
  20        0.2984694      0.4515306      0.7500000     2.00000      -1776.52702     2.00000      -1776.52702     2.00000       -133.22028     2.00000       -133.21948     2.00000        -90.05265     2.00000        -90.05234     2.00000        -90.04172     2.00000        -90.03943     2.00000        -90.02879     2.00000        -90.02848     2.00000         -8.51241     2.00000         -7.84015     2.00000         -4.67773     2.00000         -3.82531     0.00000          2.30711     0.00000          3.83992     0.00000          5.46133     0.00000          5.64821     0.00000          9.27353     0.00000         10.32536     0.00000         12.71958     0.00000         13.94897     0.00000         16.45486     0.00000         17.51501     0.00000         17.66101
  21        0.3010204      0.4489796      0.7500000     2.00000      -1776.52702     2.00000      -1776.52702     2.00000       -133.22030     2.00000       -133.21947     2.00000        -90.05266     2.00000        -90.05232     2.00000        -90.04177     2.00000        -90.03938     2.00000        -90.02880     2.00000        -90.02848     2.00000         -8.52676     2.00000         -7.83087     2.00000         -4.68917     2.00000         -3.78588     0.00000          2.22055     0.00000          3.83228     0.00000          5.51999     0.00000          5.72315     0.00000          9.21643     0.00000         10.27695     0.00000         12.75803     0.00000         14.00619     0.00000         16.41719     0.00000         17.43183     0.00000         17.64477
  22        0.3035714      0.4464286      0.7500000     2.00000      -1776.52702     2.00000      -1776.52702     2.00000       -133.22031     2.00000       -133.21945     2.00000        -90.05266     2.00000        -90.05231     2.00000        -90.04182     2.00000        -90.03933     2.00000        -90.02882     2.00000        -90.02847     2.00000         -8.54062     2.00000         -7.82214     2.00000         -4.70024     2.00000         -3.74592     0.00000          2.13517     0.00000          3.82468     0.00000          5.57919     0.00000          5.79864     0.00000          9.15894     0.00000         10.22453     0.00000         12.80045     0.00000         14.06353     0.00000         16.37996     0.00000         17.34909     0.00000         17.62348
  23        0.3061224      0.4438776      0.7500000     2.00000      -1776.52702     2.00000      -1776.52702     2.00000       -133.22033     2.00000       -133.21944     2.00000        -90.05267     2.00000        -90.05230     2.00000        -90.04187     2.00000        -90.03929     2.00000        -90.02883     2.00000        -90.02847     2.00000         -8.55400     2.00000         -7.81395     2.00000         -4.71093     2.00000         -3.70553     0.00000          2.05106     0.00000          3.81715     0.00000          5.63886     0.00000          5.87465     0.00000          9.10107     0.00000         10.16850     0.00000         12.84648     0.00000         14.12095     0.00000         16.34305     0.00000         17.26696     0.00000         17.59718
  24        0.3086735      0.4413265      0.7500000     2.00000      -1776.52702     2.00000      -1776.52702     2.00000       -133.22034     2.00000       -133.21942     2.00000        -90.05267     2.00000        -90.05229     2.00000        -90.04191     2.00000        -90.03924     2.00000        -90.02884     2.00000        -90.02846     2.00000         -8.56690     2.00000         -7.80627     2.00000         -4.72125     2.00000         -3.66479     0.00000          1.96830     0.00000          3.80972     0.00000          5.69895     0.00000          5.95114     0.00000          9.04284     0.00000         10.10922     0.00000         12.89580     0.00000         14.17842     0.00000         16.30633     0.00000         17.18564     0.00000         17.56608
  25        0.3112245      0.4387755      0.7500000     2.00000      -1776.52702     2.00000      -1776.52702     2.00000       -133.22035     2.00000       -133.21941     2.00000        -90.05267     2.00000        -90.05228     2.00000        -90.04196     2.00000        -90.03920     2.00000        -90.02885     2.00000        -90.02846     2.00000         -8.57931     2.00000         -7.79909     2.00000         -4.73120     2.00000         -3.62379     0.00000          1.88698     0.00000          3.80243     0.00000          5.75943     0.00000          6.02809     0.00000          8.98426     0.00000         10.04701     0.00000         12.94810     0.00000         14.23588     0.00000         16.26963     0.00000         17.10536     0.00000         17.53060
  26        0.3137755      0.4362245      0.7500000     2.00000      -1776.52702     2.00000      -1776.52702     2.00000       -133.22037     2.00000       -133.21939     2.00000        -90.05268     2.00000        -90.05227     2.00000        -90.04200     2.00000        -90.03915     2.00000        -90.02886     2.00000        -90.02846     2.00000         -8.59124     2.00000         -7.79237     2.00000         -4.74076     2.00000         -3.58264     0.00000          1.80721     0.00000          3.79530     0.00000          5.82025     0.00000          6.10548     0.00000          8.92537     0.00000          9.98221     0.00000         13.00308     0.00000         14.29329     0.00000         16.23273     0.00000         17.02637     0.00000         17.49128
  27        0.3163265      0.4336735      0.7500000     2.00000      -1776.52702     2.00000      -1776.52702     2.00000       -133.22038     2.00000       -133.21938     2.00000        -90.05268     2.00000        -90.05226     2.00000        -90.04204     2.00000        -90.03911     2.00000        -90.02887     2.00000        -90.02845     2.00000         -8.60268     2.00000         -7.78611     2.00000         -4.74995     2.00000         -3.54143     0.00000          1.72908     0.00000          3.78835     0.00000          5.88138     0.00000          6.18329     0.00000          8.86618     0.00000          9.91507     0.00000         13.06051     0.00000         14.35060     0.00000         16.19536     0.00000         16.94900     0.00000         17.44876
  28        0.3188775      0.4311225      0.7500000     2.00000      -1776.52702     2.00000      -1776.52702     2.00000       -133.22039     2.00000       -133.21937     2.00000        -90.05269     2.00000        -90.05225     2.00000        -90.04208     2.00000        -90.03907     2.00000        -90.02888     2.00000        -90.02845     2.00000         -8.61364     2.00000         -7.78027     2.00000         -4.75876     2.00000         -3.50029     0.00000          1.65268     0.00000          3.78160     0.00000          5.94277     0.00000          6.26149     0.00000          8.80671     0.00000          9.84588     0.00000         13.12015     0.00000         14.40776     0.00000         16.15720     0.00000         16.87360     0.00000         17.40364
  29        0.3214286      0.4285714      0.7500000     2.00000      -1776.52702     2.00000      -1776.52702     2.00000       -133.22041     2.00000       -133.21936     2.00000        -90.05269     2.00000        -90.05224     2.00000        -90.04212     2.00000        -90.03903     2.00000        -90.02889     2.00000        -90.02844     2.00000         -8.62411     2.00000         -7.77485     2.00000         -4.76718     2.00000         -3.45933     0.00000          1.57814     0.00000          3.77506     0.00000          6.00439     0.00000          6.34007     0.00000          8.74699     0.00000          9.77485     0.00000         13.18178     0.00000         14.46471     0.00000         16.11787     0.00000         16.80059     0.00000         17.35651
  30        0.3239796      0.4260204      0.7500000     2.00000      -1776.52702     2.00000      -1776.52702     2.00000       -133.22042     2.00000       -133.21934     2.00000        -90.05269     2.00000        -90.05223     2.00000        -90.04216     2.00000        -90.03900     2.00000        -90.02890     2.00000        -90.02844     2.00000         -8.63410     2.00000         -7.76981     2.00000         -4.77522     2.00000         -3.41866     0.00000          1.50555     0.00000          3.76876     0.00000          6.06619     0.00000          6.41900     0.00000          8.68705     0.00000          9.70220     0.00000         13.24523     0.00000         14.52138     0.00000         16.07693     0.00000         16.73044     0.00000         17.30788
  31        0.3265306      0.4234694      0.7500000     2.00000      -1776.52702     2.00000      -1776.52702     2.00000       -133.22043     2.00000       -133.21933     2.00000        -90.05270     2.00000        -90.05222     2.00000        -90.04220     2.00000        -90.03896     2.00000        -90.02891     2.00000        -90.02844     2.00000         -8.64360     2.00000         -7.76514     2.00000         -4.78288     2.00000         -3.37843     0.00000          1.43505     0.00000          3.76270     0.00000          6.12814     0.00000          6.49827     0.00000          8.62692     0.00000          9.62811     0.00000         13.31034     0.00000         14.57769     0.00000         16.03389     0.00000         16.66365     0.00000         17.25819
  32        0.3290816      0.4209184      0.7500000     2.00000      -1776.52702     2.00000      -1776.52702     2.00000       -133.22044     2.00000       -133.21932     2.00000        -90.05270     2.00000        -90.05221     2.00000        -90.04223     2.00000        -90.03893     2.00000        -90.02892     2.00000        -90.02843     2.00000         -8.65262     2.00000         -7.76082     2.00000         -4.79015     2.00000         -3.33878     0.00000          1.36675     0.00000          3.75690     0.00000          6.19020     0.00000          6.57785     0.00000          8.56662     0.00000          9.55277     0.00000         13.37694     0.00000         14.63357     0.00000         15.98828     0.00000         16.60076     0.00000         17.20780
  33        0.3316327      0.4183673      0.7500000     2.00000      -1776.52702     2.00000      -1776.52702     2.00000       -133.22045     2.00000       -133.21931     2.00000        -90.05270     2.00000        -90.05220     2.00000        -90.04226     2.00000        -90.03889     2.00000        -90.02892     2.00000        -90.02843     2.00000         -8.66115     2.00000         -7.75684     2.00000         -4.79703     2.00000         -3.29984     0.00000          1.30079     0.00000          3.75136     0.00000          6.25233     0.00000          6.65773     0.00000          8.50621     0.00000          9.47632     0.00000         13.44493     0.00000         14.68891     0.00000         15.93962     0.00000         16.54224     0.00000         17.15705
  34        0.3341837      0.4158163      0.7500000     2.00000      -1776.52702     2.00000      -1776.52702     2.00000       -133.22046     2.00000       -133.21930     2.00000        -90.05271     2.00000        -90.05219     2.00000        -90.04229     2.00000        -90.03886     2.00000        -90.02893     2.00000        -90.02843     2.00000         -8.66919     2.00000         -7.75318     2.00000         -4.80353     2.00000         -3.26176     0.00000          1.23731     0.00000          3.74610     0.00000          6.31446     0.00000          6.73787     0.00000          8.44571     0.00000          9.39890     0.00000         13.51416     0.00000         14.74361     0.00000         15.88758     0.00000         16.48846     0.00000         17.10621
  35        0.3367347      0.4132653      0.7500000     2.00000      -1776.52702     2.00000      -1776.52702     2.00000       -133.22047     2.00000       -133.21930     2.00000        -90.05271     2.00000        -90.05219     2.00000        -90.04232     2.00000        -90.03883     2.00000        -90.02894     2.00000        -90.02842     2.00000         -8.67675     2.00000         -7.74981     2.00000         -4.80963     2.00000         -3.22472     0.00000          1.17647     0.00000          3.74112     0.00000          6.37654     0.00000          6.81825     0.00000          8.38518     0.00000          9.32066     0.00000         13.58455     0.00000         14.79753     0.00000         15.83195     0.00000         16.43966     0.00000         17.05556
  36        0.3392857      0.4107143      0.7500000     2.00000      -1776.52702     2.00000      -1776.52702     2.00000       -133.22047     2.00000       -133.21929     2.00000        -90.05271     2.00000        -90.05218     2.00000        -90.04235     2.00000        -90.03881     2.00000        -90.02895     2.00000        -90.02842     2.00000         -8.68382     2.00000         -7.74674     2.00000         -4.81535     2.00000         -3.18887     0.00000          1.11840     0.00000          3.73644     0.00000          6.43852     0.00000          6.89884     0.00000          8.32469     0.00000          9.24170     0.00000         13.65599     0.00000         14.85053     0.00000         15.77270     0.00000         16.39589     0.00000         17.00534
  37        0.3418367      0.4081633      0.7500000     2.00000      -1776.52702     2.00000      -1776.52702     2.00000       -133.22048     2.00000       -133.21928     2.00000        -90.05272     2.00000        -90.05217     2.00000        -90.04238     2.00000        -90.03878     2.00000        -90.02895     2.00000        -90.02842     2.00000         -8.69040     2.00000         -7.74394     2.00000         -4.82068     2.00000         -3.15438     0.00000          1.06329     0.00000          3.73206     0.00000          6.50030     0.00000          6.97961     0.00000          8.26430     0.00000          9.16215     0.00000         13.72840     0.00000         14.90244     0.00000         15.70998     0.00000         16.35701     0.00000         16.95583
  38        0.3443878      0.4056122      0.7500000     2.00000      -1776.52702     2.00000      -1776.52702     2.00000       -133.22049     2.00000       -133.21927     2.00000        -90.05272     2.00000        -90.05216     2.00000        -90.04240     2.00000        -90.03876     2.00000        -90.02896     2.00000        -90.02842     2.00000         -8.69650     2.00000         -7.74139     2.00000         -4.82561     2.00000         -3.12144     0.00000          1.01129     0.00000          3.72797     0.00000          6.56180     0.00000          7.06051     0.00000          8.20410     0.00000          9.08213     0.00000         13.80169     0.00000         14.95305     0.00000         15.64411     0.00000         16.32276     0.00000         16.90728
  39        0.3469388      0.4030612      0.7500000     2.00000      -1776.52702     2.00000      -1776.52702     2.00000       -133.22050     2.00000       -133.21927     2.00000        -90.05272     2.00000        -90.05216     2.00000        -90.04242     2.00000        -90.03874     2.00000        -90.02897     2.00000        -90.02842     2.00000         -8.70211     2.00000         -7.73910     2.00000         -4.83015     2.00000         -3.09023     0.00000          0.96257     0.00000          3.72420     0.00000          6.62289     0.00000          7.14150     0.00000          8.14422     0.00000          9.00175     0.00000         13.87579     0.00000         15.00211     0.00000         15.57545     0.00000         16.29278     0.00000         16.85999
  40        0.3494898      0.4005102      0.7500000     2.00000      -1776.52702     2.00000      -1776.52702     2.00000       -133.22050     2.00000       -133.21926     2.00000        -90.05272     2.00000        -90.05215     2.00000        -90.04244     2.00000        -90.03872     2.00000        -90.02897     2.00000        -90.02841     2.00000         -8.70723     2.00000         -7.73704     2.00000         -4.83430     2.00000         -3.06092     0.00000          0.91731     0.00000          3.72075     0.00000          6.68341     0.00000          7.22250     0.00000          8.08481     0.00000          8.92113     0.00000         13.95062     0.00000         15.04936     0.00000         15.50442     0.00000         16.26669     0.00000         16.81427
  41        0.3520408      0.3979592      0.7500000     2.00000      -1776.52702     2.00000      -1776.52702     2.00000       -133.22051     2.00000       -133.21925     2.00000        -90.05272     2.00000        -90.05215     2.00000        -90.04246     2.00000        -90.03870     2.00000        -90.02898     2.00000        -90.02841     2.00000         -8.71186     2.00000         -7.73521     2.00000         -4.83806     2.00000         -3.03370     0.00000          0.87569     0.00000          3.71761     0.00000          6.74317     0.00000          7.30343     0.00000          8.02607     0.00000          8.84040     0.00000         14.02612     0.00000         15.09446     0.00000         15.43144     0.00000         16.24411     0.00000         16.77050
  42        0.3545918      0.3954082      0.7500000     2.00000      -1776.52702     2.00000      -1776.52702     2.00000       -133.22051     2.00000       -133.21925     2.00000        -90.05272     2.00000        -90.05214     2.00000        -90.04248     2.00000        -90.03868     2.00000        -90.02898     2.00000        -90.02841     2.00000         -8.71601     2.00000         -7.73360     2.00000         -4.84142     2.00000         -3.00875     0.00000          0.83788     0.00000          3.71479     0.00000          6.80188     0.00000          7.38416     0.00000          7.96827     0.00000          8.75975     0.00000         14.10222     0.00000         15.13701     0.00000         15.35686     0.00000         16.22471     0.00000         16.72908
  43        0.3571429      0.3928571      0.7500000     2.00000      -1776.52702     2.00000      -1776.52702     2.00000       -133.22052     2.00000       -133.21925     2.00000        -90.05273     2.00000        -90.05214     2.00000        -90.04249     2.00000        -90.03867     2.00000        -90.02899     2.00000        -90.02841     2.00000         -8.71967     2.00000         -7.73220     2.00000         -4.84439     2.00000         -2.98625     0.00000          0.80404     0.00000          3.71229     0.00000          6.85915     0.00000          7.46452     0.00000          7.91182     0.00000          8.67938     0.00000         14.17885     0.00000         15.17657     0.00000         15.28105     0.00000         16.20819     0.00000         16.69048
  44        0.3596939      0.3903061      0.7500000     2.00000      -1776.52702     2.00000      -1776.52702     2.00000       -133.22052     2.00000       -133.21924     2.00000        -90.05273     2.00000        -90.05213     2.00000        -90.04250     2.00000        -90.03866     2.00000        -90.02899     2.00000        -90.02841     2.00000         -8.72284     2.00000         -7.73099     2.00000         -4.84696     2.00000         -2.96637     0.00000          0.77434     0.00000          3.71013     0.00000          6.91442     0.00000          7.54421     0.00000          7.85725     0.00000          8.59962     0.00000         14.25591     0.00000         15.20429     0.00000         15.21264     0.00000         16.19431     0.00000         16.65523
  45        0.3622449      0.3877551      0.7500000     2.00000      -1776.52702     2.00000      -1776.52702     2.00000       -133.22052     2.00000       -133.21924     2.00000        -90.05273     2.00000        -90.05213     2.00000        -90.04251     2.00000        -90.03864     2.00000        -90.02899     2.00000        -90.02841     2.00000         -8.72552     2.00000         -7.72999     2.00000         -4.84914     2.00000         -2.94925     0.00000          0.74892     0.00000          3.70829     0.00000          6.96686     0.00000          7.62278     0.00000          7.80541     0.00000          8.52095     0.00000         14.33332     0.00000         15.12688     0.00000         15.24465     0.00000         16.18286     0.00000         16.62389
  46        0.3647959      0.3852041      0.7500000     2.00000      -1776.52702     2.00000      -1776.52702     2.00000       -133.22052     2.00000       -133.21924     2.00000        -90.05273     2.00000        -90.05213     2.00000        -90.04252     2.00000        -90.03864     2.00000        -90.02900     2.00000        -90.02841     2.00000         -8.72772     2.00000         -7.72917     2.00000         -4.85092     2.00000         -2.93504     0.00000          0.72793     0.00000          3.70679     0.00000          7.01525     0.00000          7.69938     0.00000          7.75752     0.00000          8.44423     0.00000         14.41092     0.00000         15.04910     0.00000         15.27200     0.00000         16.17369     0.00000         16.59708
  47        0.3673469      0.3826531      0.7500000     2.00000      -1776.52702     2.00000      -1776.52702     2.00000       -133.22053     2.00000       -133.21923     2.00000        -90.05273     2.00000        -90.05213     2.00000        -90.04253     2.00000        -90.03863     2.00000        -90.02900     2.00000        -90.02841     2.00000         -8.72942     2.00000         -7.72854     2.00000         -4.85231     2.00000         -2.92385     0.00000          0.71148     0.00000          3.70561     0.00000          7.05777     0.00000          7.71538     0.00000          7.77236     0.00000          8.37114     0.00000         14.48846     0.00000         14.97131     0.00000         15.29409     0.00000         16.16668     0.00000         16.57540
  48        0.3698980      0.3801020      0.7500000     2.00000      -1776.52702     2.00000      -1776.52702     2.00000       -133.22053     2.00000       -133.21923     2.00000        -90.05273     2.00000        -90.05213     2.00000        -90.04253     2.00000        -90.03862     2.00000        -90.02900     2.00000        -90.02841     2.00000         -8.73064     2.00000         -7.72809     2.00000         -4.85330     2.00000         -2.91579     0.00000          0.69965     0.00000          3.70478     0.00000          7.09187     0.00000          7.68155     0.00000          7.83818     0.00000          8.30523     0.00000         14.56530     0.00000         14.89424     0.00000         15.31034     0.00000         16.16173     0.00000         16.55944
  49        0.3724490      0.3775510      0.7500000     2.00000      -1776.52702     2.00000      -1776.52702     2.00000       -133.22053     2.00000       -133.21923     2.00000        -90.05273     2.00000        -90.05212     2.00000        -90.04254     2.00000        -90.03862     2.00000        -90.02900     2.00000        -90.02841     2.00000         -8.73138     2.00000         -7.72783     2.00000         -4.85389     2.00000         -2.91093     0.00000          0.69253     0.00000          3.70427     0.00000          7.11438     0.00000          7.65921     0.00000          7.88876     0.00000          8.25460     0.00000         14.63885     0.00000         14.82053     0.00000         15.32031     0.00000         16.15878     0.00000         16.54965
  50        0.3750000      0.3750000      0.7500000     2.00000      -1776.52702     2.00000      -1776.52702     2.00000       -133.22053     2.00000       -133.21923     2.00000        -90.05273     2.00000        -90.05212     2.00000        -90.04254     2.00000        -90.03862     2.00000        -90.02900     2.00000        -90.02841     2.00000         -8.73162     2.00000         -7.72774     2.00000         -4.85409     2.00000         -2.90930     0.00000          0.69015     0.00000          3.70410     0.00000          7.12230     0.00000          7.65134     0.00000          7.90910     0.00000          8.23424     0.00000         14.68520     0.00000         14.77413     0.00000         15.32366     0.00000         16.15781     0.00000         16.54635
