   1        0.0000000      0.0000000      0.0000000     2.00000      -1776.52702     2.00000      -1776.52702     2.00000       -133.22429     2.00000       -133.21544     2.00000        -90.04978     2.00000        -90.04978     2.00000        -90.04978     2.00000        -90.03134     2.00000        -90.03134     2.00000        -90.03134     2.00000        -12.52826     2.00000         -0.43011     2.00000         -0.43011     2.00000         -0.43011     0.00000          2.11289     0.00000          2.11289     0.00000          2.11289     0.00000          2.98592     0.00000          7.45815     0.00000          7.45815     0.00000          7.87112     0.00000         11.51966     0.00000         11.51966     0.00000         11.51966     0.00000         21.03946
   2        0.0000000      0.0102041      0.0102041     2.00000      -1776.52702     2.00000      -1776.52702     2.00000       -133.22429     2.00000       -133.21544     2.00000        -90.04978     2.00000        -90.04978     2.00000        -90.04977     2.00000        -90.03135     2.00000        -90.03134     2.00000        -90.03134     2.00000        -12.52641     2.00000         -0.44279     2.00000         -0.43841     2.00000         -0.43841     0.00000          2.10809     0.00000          2.12343     0.00000          2.12343     0.00000          2.99842     0.00000          7.44413     0.00000          7.46017     0.00000          7.87866     0.00000         11.52312     0.00000         11.52312     0.00000         11.53246     0.00000         21.05091
   3        0.0000000      0.0204082      0.0204082     2.00000      -1776.52702     2.00000      -1776.52702     2.00000       -133.22428     2.00000       -133.21545     2.00000        -90.04979     2.00000        -90.04979     2.00000        -90.04976     2.00000        -90.03136     2.00000        -90.03133     2.00000        -90.03133     2.00000        -12.52086     2.00000         -0.48023     2.00000         -0.46287     2.00000         -0.46287     0.00000          2.09380     0.00000          2.15465     0.00000          2.15465     0.00000          3.03525     0.00000          7.40284     0.00000          7.46624     0.00000          7.90123     0.00000         11.53351     0.00000         11.53351     0.00000         11.57024     0.00000         21.08491
   4        0.0000000      0.0306122      0.0306122     2.00000      -1776.52702     2.00000      -1776.52702     2.00000       -133.22427     2.00000       -133.21546     2.00000        -90.04981     2.00000        -90.04981     2.00000        -90.04973     2.00000        -90.03138     2.00000        -90.03131     2.00000        -90.03131     2.00000        -12.51162     2.00000         -0.54082     2.00000         -0.50232     2.00000         -0.50232     0.00000          2.07031     0.00000          2.20535     0.00000          2.20535     0.00000          3.09454     0.00000          7.33642     0.00000          7.47635     0.00000          7.93865     0.00000         11.55080     0.00000         11.55080     0.00000         11.63128     0.00000         21.14050
   5        0.0000000      0.0408163      0.0408163     2.00000      -1776.52702     2.00000      -1776.52702     2.00000       -133.22426     2.00000       -133.21548     2.00000        -90.04983     2.00000        -90.04983     2.00000        -90.04970     2.00000        -90.03142     2.00000        -90.03129     2.00000        -90.03129     2.00000        -12.49868     2.00000         -0.62223     2.00000         -0.55505     2.00000         -0.55505     0.00000          2.03808     0.00000          2.27381     0.00000          2.27381     0.00000          3.17347     0.00000          7.24813     0.00000          7.49051     0.00000          7.99063     0.00000         11.57497     0.00000         11.57497     0.00000         11.71308     0.00000         21.21615
   6        0.0000000      0.0510204      0.0510204     2.00000      -1776.52702     2.00000      -1776.52702     2.00000       -133.22424     2.00000       -133.21550     2.00000        -90.04986     2.00000        -90.04986     2.00000        -90.04966     2.00000        -90.03146     2.00000        -90.03126     2.00000        -90.03126     2.00000        -12.48205     2.00000         -0.72174     2.00000         -0.61906     2.00000         -0.61906     0.00000          1.99774     0.00000          2.35803     0.00000          2.35803     0.00000          3.26865     0.00000          7.14192     0.00000          7.50871     0.00000          8.05679     0.00000         11.60598     0.00000         11.60598     0.00000         11.81275     0.00000         21.30979
   7        0.0000000      0.0612245      0.0612245     2.00000      -1776.52702     2.00000      -1776.52702     2.00000       -133.22421     2.00000       -133.21552     2.00000        -90.04989     2.00000        -90.04989     2.00000        -90.04961     2.00000        -90.03151     2.00000        -90.03123     2.00000        -90.03123     2.00000        -12.46173     2.00000         -0.83663     2.00000         -0.69235     2.00000         -0.69235     0.00000          1.95001     0.00000          2.45598     0.00000          2.45598     0.00000          3.37628     0.00000          7.02222     0.00000          7.53096     0.00000          8.13666     0.00000         11.64377     0.00000         11.64377     0.00000         11.92736     0.00000         21.41903
   8        0.0000000      0.0714286      0.0714286     2.00000      -1776.52702     2.00000      -1776.52702     2.00000       -133.22419     2.00000       -133.21555     2.00000        -90.04993     2.00000        -90.04993     2.00000        -90.04955     2.00000        -90.03157     2.00000        -90.03119     2.00000        -90.03119     2.00000        -12.43773     2.00000         -0.96436     2.00000         -0.77302     2.00000         -0.77302     0.00000          1.89568     0.00000          2.56574     0.00000          2.56574     0.00000          3.49236     0.00000          6.89369     0.00000          7.55727     0.00000          8.22969     0.00000         11.68829     0.00000         11.68829     0.00000         12.05423     0.00000         21.54128
   9        0.0000000      0.0816327      0.0816327     2.00000      -1776.52702     2.00000      -1776.52702     2.00000       -133.22415     2.00000       -133.21558     2.00000        -90.04998     2.00000        -90.04998     2.00000        -90.04948     2.00000        -90.03164     2.00000        -90.03114     2.00000        -90.03114     2.00000        -12.41005     2.00000         -1.10269     2.00000         -0.85939     2.00000         -0.85939     0.00000          1.83561     0.00000          2.68561     0.00000          2.68561     0.00000          3.61254     0.00000          6.76131     0.00000          7.58762     0.00000          8.33529     0.00000         11.73946     0.00000         11.73946     0.00000         12.19102     0.00000         21.67395
  10        0.0000000      0.0918367      0.0918367     2.00000      -1776.52702     2.00000      -1776.52702     2.00000       -133.22412     2.00000       -133.21562     2.00000        -90.05003     2.00000        -90.05003     2.00000        -90.04940     2.00000        -90.03172     2.00000        -90.03109     2.00000        -90.03109     2.00000        -12.37869     2.00000         -1.24970     2.00000         -0.95001     2.00000         -0.95001     0.00000          1.77063     0.00000          2.81413     0.00000          2.81413     0.00000          3.73199     0.00000          6.63051     0.00000          7.62203     0.00000          8.45284     0.00000         11.79718     0.00000         11.79718     0.00000         12.33577     0.00000         21.81462
  11        0.0000000      0.1020408      0.1020408     2.00000      -1776.52702     2.00000      -1776.52702     2.00000       -133.22407     2.00000       -133.21567     2.00000        -90.05009     2.00000        -90.05009     2.00000        -90.04931     2.00000        -90.03181     2.00000        -90.03103     2.00000        -90.03103     2.00000        -12.34366     2.00000         -1.40382     2.00000         -1.04367     2.00000         -1.04367     0.00000          1.70157     0.00000          2.95004     0.00000          2.95004     0.00000          3.84508     0.00000          6.50744     0.00000          7.66050     0.00000          8.58167     0.00000         11.86134     0.00000         11.86134     0.00000         12.48690     0.00000         21.96116
  12        0.0000000      0.1122449      0.1122449     2.00000      -1776.52702     2.00000      -1776.52702     2.00000       -133.22403     2.00000       -133.21571     2.00000        -90.05015     2.00000        -90.05015     2.00000        -90.04921     2.00000        -90.03191     2.00000        -90.03097     2.00000        -90.03097     2.00000        -12.30498     2.00000         -1.56375     2.00000         -1.13935     2.00000         -1.13935     0.00000          1.62924     0.00000          3.09231     0.00000          3.09231     0.00000          3.94506     0.00000          6.39926     0.00000          7.70303     0.00000          8.72111     0.00000         11.93181     0.00000         11.93181     0.00000         12.64316     0.00000         21.69433
  13        0.0000000      0.1224490      0.1224490     2.00000      -1776.52702     2.00000      -1776.52702     2.00000       -133.22398     2.00000       -133.21576     2.00000        -90.05021     2.00000        -90.05021     2.00000        -90.04911     2.00000        -90.03202     2.00000        -90.03091     2.00000        -90.03091     2.00000        -12.26264     2.00000         -1.72842     2.00000         -1.23623     2.00000         -1.23623     0.00000          1.55437     0.00000          3.24007     0.00000          3.24007     0.00000          4.02410     0.00000          6.31415     0.00000          7.74962     0.00000          8.87050     0.00000         12.00841     0.00000         12.00841     0.00000         12.80353     0.00000         21.37818
  14        0.0000000      0.1326531      0.1326531     2.00000      -1776.52702     2.00000      -1776.52702     2.00000       -133.22392     2.00000       -133.21582     2.00000        -90.05028     2.00000        -90.05028     2.00000        -90.04899     2.00000        -90.03213     2.00000        -90.03084     2.00000        -90.03084     2.00000        -12.21666     2.00000         -1.89699     2.00000         -1.33362     2.00000         -1.33362     0.00000          1.47765     0.00000          3.39262     0.00000          3.39262     0.00000          4.07389     0.00000          6.26069     0.00000          7.80028     0.00000          9.02917     0.00000         12.09096     0.00000         12.09096     0.00000         12.96721     0.00000         21.06522
  15        0.0000000      0.1428571      0.1428571     2.00000      -1776.52702     2.00000      -1776.52702     2.00000       -133.22387     2.00000       -133.21588     2.00000        -90.05035     2.00000        -90.05035     2.00000        -90.04887     2.00000        -90.03226     2.00000        -90.03077     2.00000        -90.03077     2.00000        -12.16705     2.00000         -2.06876     2.00000         -1.43095     2.00000         -1.43095     0.00000          1.39973     0.00000          3.54935     0.00000          3.54935     0.00000          4.08747     0.00000          6.24603     0.00000          7.85501     0.00000          9.19647     0.00000         12.17918     0.00000         12.17918     0.00000         13.13355     0.00000         20.75629
  16        0.0000000      0.1530612      0.1530612     2.00000      -1776.52702     2.00000      -1776.52702     2.00000       -133.22380     2.00000       -133.21594     2.00000        -90.05043     2.00000        -90.05043     2.00000        -90.04874     2.00000        -90.03239     2.00000        -90.03069     2.00000        -90.03069     2.00000        -12.11382     2.00000         -2.24318     2.00000         -1.52775     2.00000         -1.52775     0.00000          1.32116     0.00000          3.70976     0.00000          3.70976     0.00000          4.06152     0.00000          6.27366     0.00000          7.91382     0.00000          9.37177     0.00000         12.27278     0.00000         12.27278     0.00000         13.30198     0.00000         20.45216
  17        0.0000000      0.1632653      0.1632653     2.00000      -1776.52702     2.00000      -1776.52702     2.00000       -133.22374     2.00000       -133.21601     2.00000        -90.05051     2.00000        -90.05051     2.00000        -90.04860     2.00000        -90.03253     2.00000        -90.03061     2.00000        -90.03061     2.00000        -12.05699     2.00000         -2.41978     2.00000         -1.62363     2.00000         -1.62363     0.00000          1.24246     0.00000          3.87343     0.00000          3.87343     0.00000          3.99763     0.00000          6.34217     0.00000          7.97670     0.00000          9.55442     0.00000         12.37136     0.00000         12.37136     0.00000         13.47206     0.00000         20.15357
  18        0.0000000      0.1734694      0.1734694     2.00000      -1776.52702     2.00000      -1776.52702     2.00000       -133.22366     2.00000       -133.21608     2.00000        -90.05059     2.00000        -90.05059     2.00000        -90.04845     2.00000        -90.03268     2.00000        -90.03053     2.00000        -90.03053     2.00000        -11.99656     2.00000         -2.59818     2.00000         -1.71826     2.00000         -1.71826     0.00000          1.16410     0.00000          3.90125     0.00000          4.04001     0.00000          4.04001     0.00000          6.44629     0.00000          8.04367     0.00000          9.74382     0.00000         12.47444     0.00000         12.47444     0.00000         13.64343     0.00000         19.86126
  19        0.0000000      0.1836735      0.1836735     2.00000      -1776.52702     2.00000      -1776.52702     2.00000       -133.22359     2.00000       -133.21616     2.00000        -90.05067     2.00000        -90.05067     2.00000        -90.04829     2.00000        -90.03284     2.00000        -90.03045     2.00000        -90.03045     2.00000        -11.93256     2.00000         -2.77809     2.00000         -1.81136     2.00000         -1.81136     0.00000          1.08650     0.00000          3.77948     0.00000          4.20919     0.00000          4.20919     0.00000          6.57916     0.00000          8.11472     0.00000          9.93934     0.00000         12.58139     0.00000         12.58139     0.00000         13.81583     0.00000         19.57605
  20        0.0000000      0.1938775      0.1938775     2.00000      -1776.52702     2.00000      -1776.52702     2.00000       -133.22351     2.00000       -133.21624     2.00000        -90.05076     2.00000        -90.05076     2.00000        -90.04813     2.00000        -90.03300     2.00000        -90.03036     2.00000        -90.03036     2.00000        -11.86500     2.00000         -2.95924     2.00000         -1.90270     2.00000         -1.90270     0.00000          1.01001     0.00000          3.63914     0.00000          4.38073     0.00000          4.38073     0.00000          6.73425     0.00000          8.18986     0.00000         10.14037     0.00000         12.69142     0.00000         12.69142     0.00000         13.98908     0.00000         19.29888
  21        0.0000000      0.2040816      0.2040816     2.00000      -1776.52702     2.00000      -1776.52702     2.00000       -133.22343     2.00000       -133.21632     2.00000        -90.05085     2.00000        -90.05085     2.00000        -90.04795     2.00000        -90.03318     2.00000        -90.03027     2.00000        -90.03027     2.00000        -11.79389     2.00000         -3.14142     2.00000         -1.99208     2.00000         -1.99208     0.00000          0.93498     0.00000          3.48598     0.00000          4.55439     0.00000          4.55439     0.00000          6.90616     0.00000          8.26909     0.00000         10.34627     0.00000         12.80356     0.00000         12.80356     0.00000         14.16315     0.00000         19.03083
  22        0.0000000      0.2142857      0.2142857     2.00000      -1776.52702     2.00000      -1776.52702     2.00000       -133.22334     2.00000       -133.21641     2.00000        -90.05093     2.00000        -90.05093     2.00000        -90.04777     2.00000        -90.03336     2.00000        -90.03019     2.00000        -90.03019     2.00000        -11.71926     2.00000         -3.32445     2.00000         -2.07932     2.00000         -2.07932     0.00000          0.86169     0.00000          3.32453     0.00000          4.73000     0.00000          4.73000     0.00000          7.09078     0.00000          8.35242     0.00000         10.55641     0.00000         12.91653     0.00000         12.91653     0.00000         14.33808     0.00000         18.77326
  23        0.0000000      0.2244898      0.2244898     2.00000      -1776.52702     2.00000      -1776.52702     2.00000       -133.22325     2.00000       -133.21650     2.00000        -90.05102     2.00000        -90.05102     2.00000        -90.04759     2.00000        -90.03355     2.00000        -90.03010     2.00000        -90.03010     2.00000        -11.64113     2.00000         -3.50816     2.00000         -2.16428     2.00000         -2.16428     0.00000          0.79041     0.00000          3.15829     0.00000          4.90740     0.00000          4.90740     0.00000          7.28502     0.00000          8.43985     0.00000         10.77011     0.00000         13.02874     0.00000         13.02874     0.00000         14.51404     0.00000         18.52781
  24        0.0000000      0.2346939      0.2346939     2.00000      -1776.52702     2.00000      -1776.52702     2.00000       -133.22316     2.00000       -133.21659     2.00000        -90.05111     2.00000        -90.05111     2.00000        -90.04739     2.00000        -90.03374     2.00000        -90.03001     2.00000        -90.03001     2.00000        -11.55951     2.00000         -3.69241     2.00000         -2.24683     2.00000         -2.24683     0.00000          0.72139     0.00000          2.98992     0.00000          5.08644     0.00000          5.08644     0.00000          7.48658     0.00000          8.53139     0.00000         10.98664     0.00000         13.13817     0.00000         13.13817     0.00000         14.69128     0.00000         18.29651
  25        0.0000000      0.2448980      0.2448980     2.00000      -1776.52702     2.00000      -1776.52702     2.00000       -133.22306     2.00000       -133.21669     2.00000        -90.05120     2.00000        -90.05120     2.00000        -90.04719     2.00000        -90.03395     2.00000        -90.02992     2.00000        -90.02992     2.00000        -11.47443     2.00000         -3.87708     2.00000         -2.32686     2.00000         -2.32686     0.00000          0.65484     0.00000          2.82147     0.00000          5.26701     0.00000          5.26701     0.00000          7.69378     0.00000          8.62704     0.00000         11.20521     0.00000         13.24228     0.00000         13.24228     0.00000         14.87008     0.00000         18.08191
  26        0.0000000      0.2551020      0.2551020     2.00000      -1776.52702     2.00000      -1776.52702     2.00000       -133.22296     2.00000       -133.21679     2.00000        -90.05129     2.00000        -90.05129     2.00000        -90.04698     2.00000        -90.03416     2.00000        -90.02984     2.00000        -90.02984     2.00000        -11.38591     2.00000         -4.06205     2.00000         -2.40427     2.00000         -2.40427     0.00000          0.59094     0.00000          2.65451     0.00000          5.44901     0.00000          5.44901     0.00000          7.90528     0.00000          8.72680     0.00000         11.42496     0.00000         13.33797     0.00000         13.33797     0.00000         15.05079     0.00000         17.88711
  27        0.0000000      0.2653061      0.2653061     2.00000      -1776.52702     2.00000      -1776.52702     2.00000       -133.22286     2.00000       -133.21690     2.00000        -90.05137     2.00000        -90.05137     2.00000        -90.04677     2.00000        -90.03437     2.00000        -90.02975     2.00000        -90.02975     2.00000        -11.29399     2.00000         -4.24721     2.00000         -2.47897     2.00000         -2.47897     0.00000          0.52989     0.00000          2.49024     0.00000          5.63236     0.00000          5.63236     0.00000          8.12010     0.00000          8.83067     0.00000         11.64492     0.00000         13.42149     0.00000         13.42149     0.00000         15.23376     0.00000         17.71579
  28        0.0000000      0.2755102      0.2755102     2.00000      -1776.52702     2.00000      -1776.52702     2.00000       -133.22275     2.00000       -133.21700     2.00000        -90.05146     2.00000        -90.05146     2.00000        -90.04655     2.00000        -90.03460     2.00000        -90.02967     2.00000        -90.02967     2.00000        -11.19867     2.00000         -4.43246     2.00000         -2.55089     2.00000         -2.55089     0.00000          0.47184     0.00000          2.32957     0.00000          5.81699     0.00000          5.81699     0.00000          8.33740     0.00000          8.93867     0.00000         11.86399     0.00000         13.48860     0.00000         13.48860     0.00000         15.41930     0.00000         17.57216
  29        0.0000000      0.2857143      0.2857143     2.00000      -1776.52702     2.00000      -1776.52702     2.00000       -133.22264     2.00000       -133.21711     2.00000        -90.05154     2.00000        -90.05154     2.00000        -90.04632     2.00000        -90.03482     2.00000        -90.02958     2.00000        -90.02958     2.00000        -11.10000     2.00000         -4.61769     2.00000         -2.61996     2.00000         -2.61996     0.00000          0.41694     0.00000          2.17317     0.00000          6.00284     0.00000          6.00284     0.00000          8.55654     0.00000          9.05079     0.00000         12.08091     0.00000         13.53477     0.00000         13.53477     0.00000         15.60775     0.00000         17.46066
  30        0.0000000      0.2959184      0.2959184     2.00000      -1776.52702     2.00000      -1776.52702     2.00000       -133.22253     2.00000       -133.21723     2.00000        -90.05162     2.00000        -90.05162     2.00000        -90.04609     2.00000        -90.03506     2.00000        -90.02950     2.00000        -90.02950     2.00000        -10.99801     2.00000         -4.80280     2.00000         -2.68611     2.00000         -2.68611     0.00000          0.36532     0.00000          2.02157     0.00000          6.18985     0.00000          6.18985     0.00000          8.77696     0.00000          9.16704     0.00000         12.29422     0.00000         13.55574     0.00000         13.55574     0.00000         15.79937     0.00000         17.18698
  31        0.0000000      0.3061225      0.3061225     2.00000      -1776.52702     2.00000      -1776.52702     2.00000       -133.22241     2.00000       -133.21734     2.00000        -90.05170     2.00000        -90.05170     2.00000        -90.04585     2.00000        -90.03530     2.00000        -90.02942     2.00000        -90.02942     2.00000        -10.89272     2.00000         -4.98769     2.00000         -2.74931     2.00000         -2.74931     0.00000          0.31712     0.00000          1.87512     0.00000          6.37798     0.00000          6.37798     0.00000          8.99818     0.00000          9.28742     0.00000         12.50223     0.00000         13.54818     0.00000         13.54818     0.00000         15.99440     0.00000         16.91033
  32        0.0000000      0.3163265      0.3163265     2.00000      -1776.52702     2.00000      -1776.52702     2.00000       -133.22230     2.00000       -133.21746     2.00000        -90.05178     2.00000        -90.05178     2.00000        -90.04561     2.00000        -90.03555     2.00000        -90.02934     2.00000        -90.02934     2.00000        -10.78416     2.00000         -5.17226     2.00000         -2.80948     2.00000         -2.80948     0.00000          0.27245     0.00000          1.73411     0.00000          6.56721     0.00000          6.56721     0.00000          9.21978     0.00000          9.41193     0.00000         12.70298     0.00000         13.51038     0.00000         13.51038     0.00000         16.19302     0.00000         16.63702
  33        0.0000000      0.3265306      0.3265306     2.00000      -1776.52702     2.00000      -1776.52702     2.00000       -133.22218     2.00000       -133.21758     2.00000        -90.05186     2.00000        -90.05186     2.00000        -90.04536     2.00000        -90.03580     2.00000        -90.02927     2.00000        -90.02927     2.00000        -10.67238     2.00000         -5.35642     2.00000         -2.86661     2.00000         -2.86661     0.00000          0.23142     0.00000          1.59871     0.00000          6.75748     0.00000          6.75748     0.00000          9.44141     0.00000          9.54059     0.00000         12.89424     0.00000         13.44259     0.00000         13.44259     0.00000         16.36714     0.00000         16.39538
  34        0.0000000      0.3367347      0.3367347     2.00000      -1776.52702     2.00000      -1776.52702     2.00000       -133.22205     2.00000       -133.21770     2.00000        -90.05193     2.00000        -90.05193     2.00000        -90.04510     2.00000        -90.03605     2.00000        -90.02920     2.00000        -90.02920     2.00000        -10.55741     2.00000         -5.54005     2.00000         -2.92064     2.00000         -2.92064     0.00000          0.19414     0.00000          1.46907     0.00000          6.94877     0.00000          6.94877     0.00000          9.66270     0.00000          9.67338     0.00000         13.07346     0.00000         13.34686     0.00000         13.34686     0.00000         16.10078     0.00000         16.60156
  35        0.0000000      0.3469388      0.3469388     2.00000      -1776.52702     2.00000      -1776.52702     2.00000       -133.22193     2.00000       -133.21783     2.00000        -90.05200     2.00000        -90.05200     2.00000        -90.04484     2.00000        -90.03631     2.00000        -90.02913     2.00000        -90.02913     2.00000        -10.43929     2.00000         -5.72306     2.00000         -2.97154     2.00000         -2.97154     0.00000          0.16071     0.00000          1.34525     0.00000          7.14104     0.00000          7.14104     0.00000          9.81032     0.00000          9.88337     0.00000         13.22651     0.00000         13.22651     0.00000         13.23781     0.00000         15.83802     0.00000         16.81159
  36        0.0000000      0.3571429      0.3571429     2.00000      -1776.52702     2.00000      -1776.52702     2.00000       -133.22180     2.00000       -133.21795     2.00000        -90.05206     2.00000        -90.05206     2.00000        -90.04458     2.00000        -90.03658     2.00000        -90.02907     2.00000        -90.02907     2.00000        -10.31805     2.00000         -5.90533     2.00000         -3.01928     2.00000         -3.01928     0.00000          0.13122     0.00000          1.22731     0.00000          7.33424     0.00000          7.33424     0.00000          9.95141     0.00000         10.10310     0.00000         13.08544     0.00000         13.08544     0.00000         13.38430     0.00000         15.57894     0.00000         17.02543
  37        0.0000000      0.3673469      0.3673469     2.00000      -1776.52702     2.00000      -1776.52702     2.00000       -133.22167     2.00000       -133.21808     2.00000        -90.05212     2.00000        -90.05212     2.00000        -90.04431     2.00000        -90.03685     2.00000        -90.02900     2.00000        -90.02900     2.00000        -10.19375     2.00000         -6.08677     2.00000         -3.06383     2.00000         -3.06383     0.00000          0.10575     0.00000          1.11525     0.00000          7.52831     0.00000          7.52831     0.00000         10.09664     0.00000         10.32163     0.00000         12.92755     0.00000         12.92755     0.00000         13.50986     0.00000         15.32359     0.00000         17.24294
  38        0.0000000      0.3775510      0.3775510     2.00000      -1776.52702     2.00000      -1776.52702     2.00000       -133.22154     2.00000       -133.21821     2.00000        -90.05218     2.00000        -90.05218     2.00000        -90.04404     2.00000        -90.03712     2.00000        -90.02895     2.00000        -90.02895     2.00000        -10.06643     2.00000         -6.26727     2.00000         -3.10517     2.00000         -3.10517     0.00000          0.08441     0.00000          1.00909     0.00000          7.72318     0.00000          7.72318     0.00000         10.24603     0.00000         10.53867     0.00000         12.75642     0.00000         12.75642     0.00000         13.61163     0.00000         15.07204     0.00000         17.46390
  39        0.0000000      0.3877551      0.3877551     2.00000      -1776.52702     2.00000      -1776.52702     2.00000       -133.22141     2.00000       -133.21835     2.00000        -90.05224     2.00000        -90.05224     2.00000        -90.04377     2.00000        -90.03740     2.00000        -90.02889     2.00000        -90.02889     2.00000         -9.93614     2.00000         -6.44673     2.00000         -3.14328     2.00000         -3.14328     0.00000          0.06726     0.00000          0.90880     0.00000          7.91873     0.00000          7.91873     0.00000         10.39958     0.00000         10.75396     0.00000         12.57514     0.00000         12.57514     0.00000         13.68718     0.00000         14.82433     0.00000         17.68795
  40        0.0000000      0.3979592      0.3979592     2.00000      -1776.52702     2.00000      -1776.52702     2.00000       -133.22127     2.00000       -133.21848     2.00000        -90.05229     2.00000        -90.05229     2.00000        -90.04349     2.00000        -90.03768     2.00000        -90.02884     2.00000        -90.02884     2.00000         -9.80291     2.00000         -6.62504     2.00000         -3.17814     2.00000         -3.17814     0.00000          0.05440     0.00000          0.81435     0.00000          8.11482     0.00000          8.11482     0.00000         10.55728     0.00000         10.96720     0.00000         12.38635     0.00000         12.38635     0.00000         13.73487     0.00000         14.58051     0.00000         17.91455
  41        0.0000000      0.4081633      0.4081633     2.00000      -1776.52702     2.00000      -1776.52702     2.00000       -133.22114     2.00000       -133.21862     2.00000        -90.05233     2.00000        -90.05233     2.00000        -90.04321     2.00000        -90.03796     2.00000        -90.02880     2.00000        -90.02880     2.00000         -9.66682     2.00000         -6.80209     2.00000         -3.20972     2.00000         -3.20972     0.00000          0.04590     0.00000          0.72568     0.00000          8.31120     0.00000          8.31120     0.00000         10.71914     0.00000         11.17809     0.00000         12.19226     0.00000         12.19226     0.00000         13.75399     0.00000         14.34061     0.00000         18.14293
  42        0.0000000      0.4183674      0.4183674     2.00000      -1776.52702     2.00000      -1776.52702     2.00000       -133.22100     2.00000       -133.21875     2.00000        -90.05237     2.00000        -90.05237     2.00000        -90.04292     2.00000        -90.03825     2.00000        -90.02876     2.00000        -90.02876     2.00000         -9.52791     2.00000         -6.97779     2.00000         -3.23802     2.00000         -3.23802     0.00000          0.04184     0.00000          0.64276     0.00000          8.50755     0.00000          8.50755     0.00000         10.88516     0.00000         11.38633     0.00000         11.99480     0.00000         11.99480     0.00000         13.74488     0.00000         14.10468     0.00000         18.37198
  43        0.0000000      0.4285714      0.4285714     2.00000      -1776.52702     2.00000      -1776.52702     2.00000       -133.22086     2.00000       -133.21889     2.00000        -90.05241     2.00000        -90.05241     2.00000        -90.04264     2.00000        -90.03853     2.00000        -90.02872     2.00000        -90.02872     2.00000         -9.38624     2.00000         -7.15203     2.00000         -3.26302     2.00000         -3.26302     0.00000          0.04231     0.00000          0.56553     0.00000          8.70333     0.00000          8.70333     0.00000         11.05533     0.00000         11.59154     0.00000         11.79574     0.00000         11.79574     0.00000         13.70886     0.00000         13.87275     0.00000         18.60016
  44        0.0000000      0.4387755      0.4387755     2.00000      -1776.52702     2.00000      -1776.52702     2.00000       -133.22073     2.00000       -133.21903     2.00000        -90.05244     2.00000        -90.05244     2.00000        -90.04235     2.00000        -90.03882     2.00000        -90.02869     2.00000        -90.02869     2.00000         -9.24187     2.00000         -7.32471     2.00000         -3.28471     2.00000         -3.28471     0.00000          0.04736     0.00000          0.49391     0.00000          8.89772     0.00000          8.89772     0.00000         11.22967     0.00000         11.59690     0.00000         11.59690     0.00000         11.79334     0.00000         13.64484     0.00000         13.64792     0.00000         18.82524
  45        0.0000000      0.4489796      0.4489796     2.00000      -1776.52702     2.00000      -1776.52702     2.00000       -133.22059     2.00000       -133.21917     2.00000        -90.05247     2.00000        -90.05247     2.00000        -90.04206     2.00000        -90.03911     2.00000        -90.02866     2.00000        -90.02866     2.00000         -9.09487     2.00000         -7.49573     2.00000         -3.30308     2.00000         -3.30308     0.00000          0.05709     0.00000          0.42786     0.00000          9.08931     0.00000          9.08931     0.00000         11.40044     0.00000         11.40044     0.00000         11.40817     0.00000         11.99124     0.00000         13.42097     0.00000         13.56455     0.00000         19.04404
  46        0.0000000      0.4591837      0.4591837     2.00000      -1776.52702     2.00000      -1776.52702     2.00000       -133.22045     2.00000       -133.21931     2.00000        -90.05249     2.00000        -90.05249     2.00000        -90.04176     2.00000        -90.03941     2.00000        -90.02864     2.00000        -90.02864     2.00000         -8.94529     2.00000         -7.66500     2.00000         -3.31812     2.00000         -3.31812     0.00000          0.07157     0.00000          0.36729     0.00000          9.27562     0.00000          9.27562     0.00000         11.20944     0.00000         11.20944     0.00000         11.59082     0.00000         12.18472     0.00000         13.20117     0.00000         13.46138     0.00000         19.25205
  47        0.0000000      0.4693878      0.4693878     2.00000      -1776.52702     2.00000      -1776.52702     2.00000       -133.22030     2.00000       -133.21945     2.00000        -90.05251     2.00000        -90.05251     2.00000        -90.04147     2.00000        -90.03970     2.00000        -90.02862     2.00000        -90.02862     2.00000         -8.79321     2.00000         -7.83242     2.00000         -3.32982     2.00000         -3.32982     0.00000          0.09087     0.00000          0.31214     0.00000          9.45189     0.00000          9.45189     0.00000         11.02909     0.00000         11.02909     0.00000         11.77763     0.00000         12.37311     0.00000         12.98545     0.00000         13.34100     0.00000         19.44283
  48        0.0000000      0.4795918      0.4795918     2.00000      -1776.52702     2.00000      -1776.52702     2.00000       -133.22016     2.00000       -133.21959     2.00000        -90.05252     2.00000        -90.05252     2.00000        -90.04118     2.00000        -90.04000     2.00000        -90.02861     2.00000        -90.02861     2.00000         -8.63870     2.00000         -7.99791     2.00000         -3.33819     2.00000         -3.33819     0.00000          0.11507     0.00000          0.26233     0.00000          9.60846     0.00000          9.60846     0.00000         10.86939     0.00000         10.86939     0.00000         11.96859     0.00000         12.55565     0.00000         12.77383     0.00000         13.20581     0.00000         19.60765
  49        0.0000000      0.4897959      0.4897959     2.00000      -1776.52702     2.00000      -1776.52702     2.00000       -133.22002     2.00000       -133.21974     2.00000        -90.05253     2.00000        -90.05253     2.00000        -90.04088     2.00000        -90.04029     2.00000        -90.02860     2.00000        -90.02860     2.00000         -8.48184     2.00000         -8.16136     2.00000         -3.34321     2.00000         -3.34321     0.00000          0.14424     0.00000          0.21779     0.00000          9.72557     0.00000          9.72557     0.00000         10.75032     0.00000         10.75032     0.00000         12.16370     0.00000         12.56633     0.00000         12.73142     0.00000         13.05796     0.00000         19.73558
  50        0.0000000      0.5000000      0.5000000     2.00000      -1776.52702     2.00000      -1776.52702     2.00000       -133.21988     2.00000       -133.21988     2.00000        -90.05253     2.00000        -90.05253     2.00000        -90.04059     2.00000        -90.04059     2.00000        -90.02860     2.00000        -90.02860     2.00000         -8.32270     2.00000         -8.32270     2.00000         -3.34488     2.00000         -3.34488     0.00000          0.17845     0.00000          0.17845     0.00000          9.77125     0.00000          9.77125     0.00000         10.70397     0.00000         10.70397     0.00000         12.36295     0.00000         12.36295     0.00000         12.89930     0.00000         12.89930     0.00000         19.81539
